<?xml version="1.0" encoding="UTF-8"?>
<!DOCTYPE svg PUBLIC "-//W3C//DTD SVG 1.1//EN" "http://www.w3.org/Graphics/SVG/1.1/DTD/svg11.dtd">
<!-- Creator: CorelDRAW X7 -->
<svg xmlns="http://www.w3.org/2000/svg" xml:space="preserve" width="3.05799in" height="3.05798in" version="1.1" style="shape-rendering:geometricPrecision; text-rendering:geometricPrecision; image-rendering:optimizeQuality; fill-rule:evenodd; clip-rule:evenodd"
viewBox="0 0 3340 3340"
 xmlns:xlink="http://www.w3.org/1999/xlink">
 <defs>
  <style type="text/css">
   <![CDATA[
    .fil2 {fill:none}
    .fil0 {fill:#F5CC00}
    .fil1 {fill:#FFB700}
    .fil3 {fill:#2B2A29;fill-rule:nonzero}
   ]]>
  </style>
   <clipPath id="id0">
    <path d="M1670 0c922,0 1670,748 1670,1670 0,922 -748,1670 -1670,1670 -922,0 -1670,-748 -1670,-1670 0,-922 748,-1670 1670,-1670z"/>
   </clipPath>
 </defs>
 <g id="Layer_x0020_1">
  <metadata id="CorelCorpID_0Corel-Layer"/>
  <path class="fil0" d="M1670 0c922,0 1670,748 1670,1670 0,922 -748,1670 -1670,1670 -922,0 -1670,-748 -1670,-1670 0,-922 748,-1670 1670,-1670z"/>
  <g style="clip-path:url(#id0)">
   <g id="_1083097389840">
    <path id="1" class="fil1" d="M1031 1881l1365 1730c0,0 604,-468 932,-960l-1036 -1212 -1228 -3 -33 445z"/>
   </g>
  </g>
  <path class="fil2" d="M1670 0c922,0 1670,748 1670,1670 0,922 -748,1670 -1670,1670 -922,0 -1670,-748 -1670,-1670 0,-922 748,-1670 1670,-1670z"/>
  <path class="fil3" d="M1312 1864c0,7 0,13 0,18 -1,4 -2,8 -3,11 -1,3 -3,5 -5,6 -1,1 -3,2 -6,2l-231 0c-8,0 -15,-2 -20,-7 -6,-5 -8,-12 -8,-23l0 -403c0,-10 2,-18 8,-22 5,-5 12,-7 20,-7l230 0c2,0 4,0 6,2 2,1 3,3 4,6 1,3 2,7 3,11 1,5 1,11 1,18 0,7 0,12 -1,17 -1,5 -1,8 -3,11 -1,3 -2,5 -4,7 -2,1 -4,2 -6,2l-165 0 0 112 139 0c3,0 5,1 6,2 2,2 4,3 5,6 1,3 2,7 2,11 1,5 1,11 1,17 0,7 0,13 -1,17 0,5 -1,9 -2,11 -1,3 -3,5 -5,6 -1,1 -3,2 -6,2l-139 0 0 130 166 0c3,0 5,1 6,2 2,1 4,4 5,6 1,3 2,7 3,12 0,4 0,10 0,17zm413 2c4,8 7,15 9,20 1,5 0,9 -3,11 -3,3 -8,4 -15,5 -8,1 -18,1 -31,1 -11,0 -20,0 -27,-1 -6,0 -11,-1 -15,-2 -3,-1 -6,-2 -8,-4 -2,-2 -3,-5 -4,-7l-87 -167 -87 167c-1,2 -2,5 -4,7 -2,2 -5,3 -8,4 -4,1 -9,2 -16,2 -6,1 -15,1 -26,1 -12,0 -22,0 -29,-1 -6,-1 -11,-2 -13,-5 -3,-2 -3,-6 -2,-11 2,-5 5,-12 9,-20l111 -202 -103 -190c-4,-9 -7,-15 -9,-21 -1,-5 -1,-8 2,-11 3,-2 8,-4 15,-5 8,0 18,0 32,0 11,0 20,0 26,0 7,1 12,1 16,3 4,1 6,2 8,4 1,2 3,4 4,7l82 153 78 -153c2,-3 3,-5 5,-7 1,-2 4,-3 7,-4 4,-2 9,-2 15,-3 6,0 14,0 25,0 12,0 21,0 28,0 7,1 12,3 14,5 3,3 4,7 2,12 -1,5 -4,11 -8,20l-103 189 110 203zm168 22c0,3 -1,5 -2,7 -2,2 -4,3 -8,4 -4,1 -8,2 -14,3 -6,1 -14,1 -23,1 -9,0 -17,0 -23,-1 -6,-1 -11,-2 -14,-3 -4,-1 -6,-2 -8,-4 -2,-2 -2,-4 -2,-7l0 -436c0,-3 0,-5 2,-7 2,-2 4,-3 8,-5 4,-1 8,-2 14,-2 6,-1 14,-1 23,-1 9,0 17,0 23,1 6,0 10,1 14,2 4,2 6,3 8,5 1,2 2,4 2,7l0 436zm408 -411c0,7 0,13 -1,18 -1,5 -1,9 -3,12 -1,3 -2,5 -4,6 -2,2 -4,3 -6,3l-116 0 0 372c0,3 0,5 -2,7 -1,2 -4,3 -8,4 -3,1 -8,2 -14,3 -6,1 -14,1 -23,1 -9,0 -16,0 -22,-1 -7,-1 -11,-2 -15,-3 -3,-1 -6,-2 -8,-4 -1,-2 -2,-4 -2,-7l0 -372 -115 0c-3,0 -5,-1 -7,-3 -1,-1 -3,-3 -4,-6 -1,-3 -2,-7 -3,-12 0,-5 0,-11 0,-18 0,-7 0,-13 0,-18 1,-5 2,-9 3,-12 1,-3 3,-5 4,-6 2,-2 4,-2 7,-2l325 0c2,0 4,0 6,2 2,1 3,3 4,6 2,3 2,7 3,12 1,5 1,11 1,18z"/>
 </g>
</svg>
